[
	{
		"type":"header","version":"4.8.3","comment":"Export to JSON plugin for PHPMyAdmin"
	},
	{
		"type":"database","name":"akimana"
	},
	{
		"type":"table","name":"products","database":"akimana",
		"data":[
			{"id":"1","name":"Chuck Taylor","model":"Adidas","price":"240","picture":"chuck_taylor.png","created_at":"2018-12-19 14:14:35","updated_at":"2018-12-19 14:14:35"},
			{"id":"2","name":"Golf Shoes","model":"Puma","price":"234","picture":"golf_shoes.png","created_at":"2018-12-19 14:14:35","updated_at":"2018-12-19 14:14:35"},
			{"id":"3","name":"Hiking Boot","model":"Puma","price":"340","picture":"hiking_boot.png","created_at":"2018-12-19 14:16:09","updated_at":"2018-12-19 14:16:09"},
			{"id":"4","name":"High-Tops","model":"Adidas","price":"230","picture":"high_tops.png","created_at":"2018-12-19 14:16:09","updated_at":"2018-12-19 14:16:09"},
			{"id":"5","name":"Running shoes","model":"Adidas","price":"324","picture":"running_shoes.png","created_at":"2018-12-19 14:17:41","updated_at":"2018-12-19 14:17:41"},
			{"id":"6","name":"Climbing shoes","model":"Puma","price":"354","picture":"climbing_shoes.png","created_at":"2018-12-19 14:17:41","updated_at":"2018-12-19 14:17:41"},
			{"id":"7","name":"Soccer shoes","model":"Adidas","price":"123","picture":"soccer_shoes.png","created_at":"2018-12-19 14:19:27","updated_at":"2018-12-19 14:19:27"},
			{"id":"8","name":"Sneakers (U.S)","model":"Adidas","price":"432","picture":"sneakers.png","created_at":"2018-12-19 14:19:27","updated_at":"2018-12-19 14:19:27"},
			{"id":"9","name":"Trainers (U.K)","model":"Adidas","price":"432","picture":null,"created_at":"2018-12-19 14:20:54","updated_at":"2018-12-19 14:20:54"},
			{"id":"10","name":"Basketball shoes","model":"Puma","price":"254","picture":"basketball_shoes.png","created_at":"2018-12-19 14:20:54","updated_at":"2018-12-19 14:20:54"},
			{"id":"11","name":"Ice-skates","model":"Adidas","price":"145","picture":"ice_skates.png","created_at":"2018-12-19 14:23:52","updated_at":"2018-12-19 14:23:52"},
			{"id":"12","name":"Old skool","model":"Timberland","price":"476","picture":"old_skool.png","created_at":"2018-12-19 14:23:52","updated_at":"2018-12-19 14:23:52"}
		]
	}
]
